version="1.32.2"
tags={
	"Balance"
	"Military"
	"Map"
	"Historical"
	"Technologies"
	"Religion"
	"Fixes"
	"Gameplay"
	"Trade"
	"Events"
	"Missions And Decisions"
	"Expansion"
}
name="Fixing PDX (1.32)"
supported_version="1.32.2"
remote_file_id="2688488296"