edict_encourage_development = {
	potential = {
		always = yes		#we support "potential" if modders want to have lots and just show some.
	}
	
	allow = {
		always = yes
	}
	
	modifier = {
		local_governing_cost = -0.2	
	}
	
	color = {  244 184 12  }
	
	
	ai_will_do = {
		factor = 0
	}
	
}